<svg width="30" height="30" viewBox="0 0 30 30" fill="none" xmlns="http://www.w3.org/2000/svg">
<circle cx="15" cy="15" r="14" stroke="#287BE2" stroke-width="2"/>
<line x1="15" y1="13" x2="15" y2="24" stroke="#287BE2" stroke-width="2"/>
<circle cx="15" cy="8" r="2" fill="#287BE2"/>
</svg>
