<svg width="100" height="100" viewBox="0 0 100 100" fill="none" xmlns="http://www.w3.org/2000/svg">
<circle cx="50" cy="50" r="50" fill="#EFEFEF"/>
<path d="M58.3813 40.2159C58.3813 44.896 54.6243 48.6818 49.9997 48.6818C45.3752 48.6818 41.6182 44.896 41.6182 40.2159C41.6182 35.5359 45.3752 31.75 49.9997 31.75C54.6243 31.75 58.3813 35.5359 58.3813 40.2159Z" stroke="#8E8E8E"/>
<path d="M31.75 67.5757C31.75 57.4965 39.9208 49.3257 50 49.3257C60.0792 49.3257 68.25 57.4965 68.25 67.5757V68.2499H31.75V67.5757Z" stroke="#8E8E8E"/>
</svg>
